{
  "project_info": {
    "project_number": "962204372319",
    "project_id": "musee-android-2021",
    "storage_bucket": "musee-android-2021.appspot.com"
  },
  "client": [
    {
      "client_info": {
        "mobilesdk_app_id": "1:962204372319:android:3003e6f6283e53e5723aea",
        "android_client_info": {
          "package_name": "net.baert.museeandroid2021"
        }
      },
      "oauth_client": [
        {
          "client_id": "962204372319-efmkusjmtn9i3cga5t6s6vbefbqpf021.apps.googleusercontent.com",
          "client_type": 3
        }
      ],
      "api_key": [
        {
          "current_key": "AIzaSyBPmRUE5P_QEdqtdU4BM8JL5Tqe3QUTGJE"
        }
      ],
      "services": {
        "appinvite_service": {
          "other_platform_oauth_client": [
            {
              "client_id": "962204372319-efmkusjmtn9i3cga5t6s6vbefbqpf021.apps.googleusercontent.com",
              "client_type": 3
            }
          ]
        }
      }
    }
  ],
  "configuration_version": "1"
}